%YAML 1.1
%TAG !u! tag:unity3d.com,2011:
--- !u!74 &7400000
AnimationClip:
  m_ObjectHideFlags: 0
  m_CorrespondingSourceObject: {fileID: 0}
  m_PrefabInstance: {fileID: 0}
  m_PrefabAsset: {fileID: 0}
  m_Name: Avatar_1_Anim
  serializedVersion: 6
  m_Legacy: 0
  m_Compressed: 0
  m_UseHighQualityCurve: 1
  m_RotationCurves: []
  m_CompressedRotationCurves: []
  m_EulerCurves: []
  m_PositionCurves: []
  m_ScaleCurves: []
  m_FloatCurves: []
  m_PPtrCurves:
  - curve:
    - time: 0
      value: {fileID: 21300000, guid: 3be77ddadf270fb4ca53b974cd5238d7, type: 3}
    - time: 0.016666668
      value: {fileID: 21300000, guid: faccf8b2e8e133343bac6f125c7d5101, type: 3}
    - time: 0.033333335
      value: {fileID: 21300000, guid: bd052e7be8c91424985403c00d938d68, type: 3}
    - time: 0.05
      value: {fileID: 21300000, guid: 47f5d9818deae7b49bf093aafe8c807e, type: 3}
    - time: 0.06666667
      value: {fileID: 21300000, guid: ea60a2329dc67f84ba4ca0a329d03fae, type: 3}
    - time: 0.083333336
      value: {fileID: 21300000, guid: 17d1f379c501dab42abc92c5879a10d2, type: 3}
    - time: 0.1
      value: {fileID: 21300000, guid: cea2ce1cb9137ab48b44f8bd9569eea4, type: 3}
    - time: 0.11666667
      value: {fileID: 21300000, guid: 150161e7efdc0244baa11f13e9684fdb, type: 3}
    - time: 0.13333334
      value: {fileID: 21300000, guid: 6c5da381fc539064fbb47d4595a69c05, type: 3}
    - time: 0.15
      value: {fileID: 21300000, guid: b0d670da2cfb8be4db49c04dc1d596b1, type: 3}
    - time: 0.16666667
      value: {fileID: 21300000, guid: d1192e1d70689fb4194f2bedaaf74884, type: 3}
    - time: 0.18333334
      value: {fileID: 21300000, guid: 78b29b76fad513b40aa5524d9bd6b495, type: 3}
    - time: 0.2
      value: {fileID: 21300000, guid: 8479c0bd53a757a4ebd226ecb78af229, type: 3}
    - time: 0.21666667
      value: {fileID: 21300000, guid: 1e93b4c2bbded584d92b906b5dae256a, type: 3}
    - time: 0.23333333
      value: {fileID: 21300000, guid: a4d6def5bd01eca4598a1f065e1f56ca, type: 3}
    - time: 0.25
      value: {fileID: 21300000, guid: 62a1d4169dccadb498cf169181312419, type: 3}
    - time: 0.26666668
      value: {fileID: 21300000, guid: da7a7f9d3054e5249843aecac73ba45e, type: 3}
    - time: 0.28333333
      value: {fileID: 21300000, guid: 687fd3d69b897d940a500b6f6ba1139c, type: 3}
    - time: 0.3
      value: {fileID: 21300000, guid: 3b5ba9e687b689348805ab072ed362a0, type: 3}
    - time: 0.31666666
      value: {fileID: 21300000, guid: 056d93831aa51ef43899eaa8d1e3162b, type: 3}
    - time: 0.33333334
      value: {fileID: 21300000, guid: df554776968917845b39471cb2b26f7c, type: 3}
    - time: 0.35
      value: {fileID: 21300000, guid: 7d5c3789cb3720340b14e87898122455, type: 3}
    - time: 0.36666667
      value: {fileID: 21300000, guid: 4ff33aa3cae58004984c1c715a5279a2, type: 3}
    - time: 0.38333333
      value: {fileID: 21300000, guid: 41b90459740a5084082f59b3e916dff9, type: 3}
    - time: 0.4
      value: {fileID: 21300000, guid: 0d5fc82504b9ab140bccdba98acd70f2, type: 3}
    - time: 0.41666666
      value: {fileID: 21300000, guid: 7eb169e108066e14c82481616c11d654, type: 3}
    - time: 0.43333334
      value: {fileID: 21300000, guid: 53c13fece5e26274c8f4869a9f27fba9, type: 3}
    - time: 0.45
      value: {fileID: 21300000, guid: 5a5373f67cb66884fb54b2b21aba01a8, type: 3}
    - time: 0.46666667
      value: {fileID: 21300000, guid: 35597360ba51e404e97f834a5cdfb541, type: 3}
    - time: 0.48333332
      value: {fileID: 21300000, guid: de0296ab6e3976e4e90c237b769727bb, type: 3}
    - time: 0.5
      value: {fileID: 21300000, guid: e0c5bf417d03913468a774b1265d8c17, type: 3}
    - time: 0.51666665
      value: {fileID: 21300000, guid: ff9907a8f08c51b40ad52ac6309d3489, type: 3}
    - time: 0.53333336
      value: {fileID: 21300000, guid: a6335bddfb53a1c45b7fe32d040ec96b, type: 3}
    - time: 0.55
      value: {fileID: 21300000, guid: fbcf44d3b7846a04aa504f2a99296d10, type: 3}
    - time: 0.56666666
      value: {fileID: 21300000, guid: 63fdba13f7c678349ae33cce950886f3, type: 3}
    - time: 0.5833333
      value: {fileID: 21300000, guid: 2fc74f0ae74f99e42abbefd340b40eb2, type: 3}
    - time: 0.6
      value: {fileID: 21300000, guid: 90bfc53fd1b61ea45828b5a706c9e8eb, type: 3}
    - time: 0.6166667
      value: {fileID: 21300000, guid: 36d5552903666b64dacc85d24889362d, type: 3}
    - time: 0.6333333
      value: {fileID: 21300000, guid: 134307e8e67cd654bbd6581395f4e0af, type: 3}
    - time: 0.65
      value: {fileID: 21300000, guid: c40fc68eeefb13b4eaf6ecc410a0e7f3, type: 3}
    - time: 0.6666667
      value: {fileID: 21300000, guid: 9bf83f861df98f84181c90f7984b7007, type: 3}
    - time: 0.68333334
      value: {fileID: 21300000, guid: 900ddcba81e589c49a64ed0486af34c3, type: 3}
    - time: 0.7
      value: {fileID: 21300000, guid: bb327a69af05e924e96b5d64d88b4c76, type: 3}
    - time: 0.71666664
      value: {fileID: 21300000, guid: 2c5fbbcac9b956041b34c505e9fd9b99, type: 3}
    - time: 0.73333335
      value: {fileID: 21300000, guid: 192b3c2bd480f19419a182bf25899e34, type: 3}
    - time: 0.75
      value: {fileID: 21300000, guid: 0398b3e002b8412489cac24bd7834f3f, type: 3}
    - time: 0.76666665
      value: {fileID: 21300000, guid: 818e301be954954419325e48db99e646, type: 3}
    - time: 0.78333336
      value: {fileID: 21300000, guid: 0634a0802cbcea142b94b53163367f80, type: 3}
    attribute: m_Sprite
    path: 
    classID: 114
    script: {fileID: 11500000, guid: fe87c0e1cc204ed48ad3b37840f39efc, type: 3}
  m_SampleRate: 60
  m_WrapMode: 0
  m_Bounds:
    m_Center: {x: 0, y: 0, z: 0}
    m_Extent: {x: 0, y: 0, z: 0}
  m_ClipBindingConstant:
    genericBindings:
    - serializedVersion: 2
      path: 0
      attribute: 2015549526
      script: {fileID: 11500000, guid: fe87c0e1cc204ed48ad3b37840f39efc, type: 3}
      typeID: 114
      customType: 0
      isPPtrCurve: 1
    pptrCurveMapping:
    - {fileID: 21300000, guid: 3be77ddadf270fb4ca53b974cd5238d7, type: 3}
    - {fileID: 21300000, guid: faccf8b2e8e133343bac6f125c7d5101, type: 3}
    - {fileID: 21300000, guid: bd052e7be8c91424985403c00d938d68, type: 3}
    - {fileID: 21300000, guid: 47f5d9818deae7b49bf093aafe8c807e, type: 3}
    - {fileID: 21300000, guid: ea60a2329dc67f84ba4ca0a329d03fae, type: 3}
    - {fileID: 21300000, guid: 17d1f379c501dab42abc92c5879a10d2, type: 3}
    - {fileID: 21300000, guid: cea2ce1cb9137ab48b44f8bd9569eea4, type: 3}
    - {fileID: 21300000, guid: 150161e7efdc0244baa11f13e9684fdb, type: 3}
    - {fileID: 21300000, guid: 6c5da381fc539064fbb47d4595a69c05, type: 3}
    - {fileID: 21300000, guid: b0d670da2cfb8be4db49c04dc1d596b1, type: 3}
    - {fileID: 21300000, guid: d1192e1d70689fb4194f2bedaaf74884, type: 3}
    - {fileID: 21300000, guid: 78b29b76fad513b40aa5524d9bd6b495, type: 3}
    - {fileID: 21300000, guid: 8479c0bd53a757a4ebd226ecb78af229, type: 3}
    - {fileID: 21300000, guid: 1e93b4c2bbded584d92b906b5dae256a, type: 3}
    - {fileID: 21300000, guid: a4d6def5bd01eca4598a1f065e1f56ca, type: 3}
    - {fileID: 21300000, guid: 62a1d4169dccadb498cf169181312419, type: 3}
    - {fileID: 21300000, guid: da7a7f9d3054e5249843aecac73ba45e, type: 3}
    - {fileID: 21300000, guid: 687fd3d69b897d940a500b6f6ba1139c, type: 3}
    - {fileID: 21300000, guid: 3b5ba9e687b689348805ab072ed362a0, type: 3}
    - {fileID: 21300000, guid: 056d93831aa51ef43899eaa8d1e3162b, type: 3}
    - {fileID: 21300000, guid: df554776968917845b39471cb2b26f7c, type: 3}
    - {fileID: 21300000, guid: 7d5c3789cb3720340b14e87898122455, type: 3}
    - {fileID: 21300000, guid: 4ff33aa3cae58004984c1c715a5279a2, type: 3}
    - {fileID: 21300000, guid: 41b90459740a5084082f59b3e916dff9, type: 3}
    - {fileID: 21300000, guid: 0d5fc82504b9ab140bccdba98acd70f2, type: 3}
    - {fileID: 21300000, guid: 7eb169e108066e14c82481616c11d654, type: 3}
    - {fileID: 21300000, guid: 53c13fece5e26274c8f4869a9f27fba9, type: 3}
    - {fileID: 21300000, guid: 5a5373f67cb66884fb54b2b21aba01a8, type: 3}
    - {fileID: 21300000, guid: 35597360ba51e404e97f834a5cdfb541, type: 3}
    - {fileID: 21300000, guid: de0296ab6e3976e4e90c237b769727bb, type: 3}
    - {fileID: 21300000, guid: e0c5bf417d03913468a774b1265d8c17, type: 3}
    - {fileID: 21300000, guid: ff9907a8f08c51b40ad52ac6309d3489, type: 3}
    - {fileID: 21300000, guid: a6335bddfb53a1c45b7fe32d040ec96b, type: 3}
    - {fileID: 21300000, guid: fbcf44d3b7846a04aa504f2a99296d10, type: 3}
    - {fileID: 21300000, guid: 63fdba13f7c678349ae33cce950886f3, type: 3}
    - {fileID: 21300000, guid: 2fc74f0ae74f99e42abbefd340b40eb2, type: 3}
    - {fileID: 21300000, guid: 90bfc53fd1b61ea45828b5a706c9e8eb, type: 3}
    - {fileID: 21300000, guid: 36d5552903666b64dacc85d24889362d, type: 3}
    - {fileID: 21300000, guid: 134307e8e67cd654bbd6581395f4e0af, type: 3}
    - {fileID: 21300000, guid: c40fc68eeefb13b4eaf6ecc410a0e7f3, type: 3}
    - {fileID: 21300000, guid: 9bf83f861df98f84181c90f7984b7007, type: 3}
    - {fileID: 21300000, guid: 900ddcba81e589c49a64ed0486af34c3, type: 3}
    - {fileID: 21300000, guid: bb327a69af05e924e96b5d64d88b4c76, type: 3}
    - {fileID: 21300000, guid: 2c5fbbcac9b956041b34c505e9fd9b99, type: 3}
    - {fileID: 21300000, guid: 192b3c2bd480f19419a182bf25899e34, type: 3}
    - {fileID: 21300000, guid: 0398b3e002b8412489cac24bd7834f3f, type: 3}
    - {fileID: 21300000, guid: 818e301be954954419325e48db99e646, type: 3}
    - {fileID: 21300000, guid: 0634a0802cbcea142b94b53163367f80, type: 3}
  m_AnimationClipSettings:
    serializedVersion: 2
    m_AdditiveReferencePoseClip: {fileID: 0}
    m_AdditiveReferencePoseTime: 0
    m_StartTime: 0
    m_StopTime: 0.8
    m_OrientationOffsetY: 0
    m_Level: 0
    m_CycleOffset: 0
    m_HasAdditiveReferencePose: 0
    m_LoopTime: 1
    m_LoopBlend: 0
    m_LoopBlendOrientation: 0
    m_LoopBlendPositionY: 0
    m_LoopBlendPositionXZ: 0
    m_KeepOriginalOrientation: 0
    m_KeepOriginalPositionY: 1
    m_KeepOriginalPositionXZ: 0
    m_HeightFromFeet: 0
    m_Mirror: 0
  m_EditorCurves: []
  m_EulerEditorCurves: []
  m_HasGenericRootTransform: 0
  m_HasMotionFloatCurves: 0
  m_Events: []
