%YAML 1.1
%TAG !u! tag:unity3d.com,2011:
--- !u!74 &7400000
AnimationClip:
  m_ObjectHideFlags: 0
  m_CorrespondingSourceObject: {fileID: 0}
  m_PrefabInstance: {fileID: 0}
  m_PrefabAsset: {fileID: 0}
  m_Name: Avatar_2_Anim
  serializedVersion: 6
  m_Legacy: 0
  m_Compressed: 0
  m_UseHighQualityCurve: 1
  m_RotationCurves: []
  m_CompressedRotationCurves: []
  m_EulerCurves: []
  m_PositionCurves: []
  m_ScaleCurves: []
  m_FloatCurves: []
  m_PPtrCurves:
  - curve:
    - time: 0
      value: {fileID: 21300000, guid: 8d3a5d3ba51efb24c9ef61483afa947c, type: 3}
    - time: 0.016666668
      value: {fileID: 21300000, guid: 99b3072fabff5ff4db361d084153315b, type: 3}
    - time: 0.033333335
      value: {fileID: 21300000, guid: b68ddb2674621514d9a1c44f85ecb93a, type: 3}
    - time: 0.05
      value: {fileID: 21300000, guid: 8d3ca06c222af4c4e90b5e687f83f35c, type: 3}
    - time: 0.06666667
      value: {fileID: 21300000, guid: 4e616cb8390e9554fab15e06b68c0ef2, type: 3}
    - time: 0.083333336
      value: {fileID: 21300000, guid: 6fb599a9640d6bd43a05427ecf93b216, type: 3}
    - time: 0.1
      value: {fileID: 21300000, guid: 89d36206116b85641ba46630f9449f54, type: 3}
    - time: 0.11666667
      value: {fileID: 21300000, guid: be04743dd5c9b7343b8162e166fadec0, type: 3}
    - time: 0.13333334
      value: {fileID: 21300000, guid: 2c1960da75b48364982e165fe3fef541, type: 3}
    - time: 0.15
      value: {fileID: 21300000, guid: fcdaab6154e698b4ba8b904f63fcaa30, type: 3}
    - time: 0.16666667
      value: {fileID: 21300000, guid: 68e9f1f0a62131540bed601c8a7cdb0a, type: 3}
    - time: 0.18333334
      value: {fileID: 21300000, guid: 34b2a3ea649d692458fc4c33f096c619, type: 3}
    - time: 0.2
      value: {fileID: 21300000, guid: 4c47f22114a4c0d4ebf243a358a8453e, type: 3}
    - time: 0.21666667
      value: {fileID: 21300000, guid: 8ff02090919544b41ab53dc10a0a6072, type: 3}
    - time: 0.23333333
      value: {fileID: 21300000, guid: 4cfa61ad94d79724b8470209983b18ec, type: 3}
    - time: 0.25
      value: {fileID: 21300000, guid: 9f0d6e428f3f7be4eb883aa48fcb6c84, type: 3}
    - time: 0.26666668
      value: {fileID: 21300000, guid: 16580cfb1296a1e43b4361bd4d01d79b, type: 3}
    - time: 0.28333333
      value: {fileID: 21300000, guid: 31a5fb81bedbc9345a54c420e5df2cc0, type: 3}
    - time: 0.3
      value: {fileID: 21300000, guid: ddacf49c83d096c45a7218c356192c83, type: 3}
    - time: 0.31666666
      value: {fileID: 21300000, guid: ea7a3b2ee5e8a5e4388dc0fda5b4a4a1, type: 3}
    - time: 0.33333334
      value: {fileID: 21300000, guid: 6f028e80d88e73443a34b0d6050a6186, type: 3}
    - time: 0.35
      value: {fileID: 21300000, guid: 0ccf6b00b78854944b44ae7caa235c8b, type: 3}
    - time: 0.36666667
      value: {fileID: 21300000, guid: 3cd8689b122e0214e9b5c012a3505375, type: 3}
    - time: 0.38333333
      value: {fileID: 21300000, guid: cdf400faf8df91f41be2c58e41271a40, type: 3}
    - time: 0.4
      value: {fileID: 21300000, guid: 7c2adba41c6136742a6ae5ab87c83ec5, type: 3}
    - time: 0.41666666
      value: {fileID: 21300000, guid: 3224c9dcf9d239c429028b23796dd71f, type: 3}
    - time: 0.43333334
      value: {fileID: 21300000, guid: 55af0c35b2eee3f44a9377245ebff12a, type: 3}
    - time: 0.45
      value: {fileID: 21300000, guid: 8de305a1f96a1bf4f9f705c90cf635f4, type: 3}
    - time: 0.46666667
      value: {fileID: 21300000, guid: 2ba2d17bd089e354f80d482656cc187e, type: 3}
    - time: 0.48333332
      value: {fileID: 21300000, guid: bfeea3633779bed4f9986a12b6834daa, type: 3}
    - time: 0.5
      value: {fileID: 21300000, guid: 0b9ff645f8547f845b921d24ed1027eb, type: 3}
    - time: 0.51666665
      value: {fileID: 21300000, guid: 906e38ef9b224f14da3ba49f56806e7f, type: 3}
    - time: 0.53333336
      value: {fileID: 21300000, guid: 8519e4df121cada498f520a8a22c13aa, type: 3}
    - time: 0.55
      value: {fileID: 21300000, guid: 571de340c3b2b1a41ad089d33f0571a7, type: 3}
    - time: 0.56666666
      value: {fileID: 21300000, guid: cce8a07027114eb48894c68b4c121b08, type: 3}
    - time: 0.5833333
      value: {fileID: 21300000, guid: a23cf5c6d9f40da4f91c2998c61784ba, type: 3}
    - time: 0.6
      value: {fileID: 21300000, guid: 47418f4b8ef038443b685f8e5e1729b0, type: 3}
    - time: 0.6166667
      value: {fileID: 21300000, guid: a04f28c73907f1042a4d4bdb670eb898, type: 3}
    - time: 0.6333333
      value: {fileID: 21300000, guid: 7dd735e0c7ae2b543b391bed62b94fca, type: 3}
    - time: 0.65
      value: {fileID: 21300000, guid: 75fdaccf4517f9a4fa0391f9b1624380, type: 3}
    - time: 0.6666667
      value: {fileID: 21300000, guid: 733c638672b77e449ae1d6a1f9ab245c, type: 3}
    - time: 0.68333334
      value: {fileID: 21300000, guid: aaafb76aa6cd7b049a8badb2ed55dd5b, type: 3}
    - time: 0.7
      value: {fileID: 21300000, guid: e8d0e1219bd522a428f740fa5a648e93, type: 3}
    - time: 0.71666664
      value: {fileID: 21300000, guid: 0a2864c31c98b8347965fa3dc566dd5a, type: 3}
    - time: 0.73333335
      value: {fileID: 21300000, guid: fa03628c46f226e49a26cd87c33eca67, type: 3}
    - time: 0.75
      value: {fileID: 21300000, guid: 22c39576c03ae0e478a198b9eb17ef25, type: 3}
    - time: 0.76666665
      value: {fileID: 21300000, guid: cb46039583ec5da45b171c68b76cb2c1, type: 3}
    - time: 0.78333336
      value: {fileID: 21300000, guid: 4d02f8b7d0a99d54982a31929d7b4c20, type: 3}
    attribute: m_Sprite
    path: 
    classID: 114
    script: {fileID: 11500000, guid: fe87c0e1cc204ed48ad3b37840f39efc, type: 3}
  m_SampleRate: 60
  m_WrapMode: 0
  m_Bounds:
    m_Center: {x: 0, y: 0, z: 0}
    m_Extent: {x: 0, y: 0, z: 0}
  m_ClipBindingConstant:
    genericBindings:
    - serializedVersion: 2
      path: 0
      attribute: 2015549526
      script: {fileID: 11500000, guid: fe87c0e1cc204ed48ad3b37840f39efc, type: 3}
      typeID: 114
      customType: 0
      isPPtrCurve: 1
    pptrCurveMapping:
    - {fileID: 21300000, guid: 8d3a5d3ba51efb24c9ef61483afa947c, type: 3}
    - {fileID: 21300000, guid: 99b3072fabff5ff4db361d084153315b, type: 3}
    - {fileID: 21300000, guid: b68ddb2674621514d9a1c44f85ecb93a, type: 3}
    - {fileID: 21300000, guid: 8d3ca06c222af4c4e90b5e687f83f35c, type: 3}
    - {fileID: 21300000, guid: 4e616cb8390e9554fab15e06b68c0ef2, type: 3}
    - {fileID: 21300000, guid: 6fb599a9640d6bd43a05427ecf93b216, type: 3}
    - {fileID: 21300000, guid: 89d36206116b85641ba46630f9449f54, type: 3}
    - {fileID: 21300000, guid: be04743dd5c9b7343b8162e166fadec0, type: 3}
    - {fileID: 21300000, guid: 2c1960da75b48364982e165fe3fef541, type: 3}
    - {fileID: 21300000, guid: fcdaab6154e698b4ba8b904f63fcaa30, type: 3}
    - {fileID: 21300000, guid: 68e9f1f0a62131540bed601c8a7cdb0a, type: 3}
    - {fileID: 21300000, guid: 34b2a3ea649d692458fc4c33f096c619, type: 3}
    - {fileID: 21300000, guid: 4c47f22114a4c0d4ebf243a358a8453e, type: 3}
    - {fileID: 21300000, guid: 8ff02090919544b41ab53dc10a0a6072, type: 3}
    - {fileID: 21300000, guid: 4cfa61ad94d79724b8470209983b18ec, type: 3}
    - {fileID: 21300000, guid: 9f0d6e428f3f7be4eb883aa48fcb6c84, type: 3}
    - {fileID: 21300000, guid: 16580cfb1296a1e43b4361bd4d01d79b, type: 3}
    - {fileID: 21300000, guid: 31a5fb81bedbc9345a54c420e5df2cc0, type: 3}
    - {fileID: 21300000, guid: ddacf49c83d096c45a7218c356192c83, type: 3}
    - {fileID: 21300000, guid: ea7a3b2ee5e8a5e4388dc0fda5b4a4a1, type: 3}
    - {fileID: 21300000, guid: 6f028e80d88e73443a34b0d6050a6186, type: 3}
    - {fileID: 21300000, guid: 0ccf6b00b78854944b44ae7caa235c8b, type: 3}
    - {fileID: 21300000, guid: 3cd8689b122e0214e9b5c012a3505375, type: 3}
    - {fileID: 21300000, guid: cdf400faf8df91f41be2c58e41271a40, type: 3}
    - {fileID: 21300000, guid: 7c2adba41c6136742a6ae5ab87c83ec5, type: 3}
    - {fileID: 21300000, guid: 3224c9dcf9d239c429028b23796dd71f, type: 3}
    - {fileID: 21300000, guid: 55af0c35b2eee3f44a9377245ebff12a, type: 3}
    - {fileID: 21300000, guid: 8de305a1f96a1bf4f9f705c90cf635f4, type: 3}
    - {fileID: 21300000, guid: 2ba2d17bd089e354f80d482656cc187e, type: 3}
    - {fileID: 21300000, guid: bfeea3633779bed4f9986a12b6834daa, type: 3}
    - {fileID: 21300000, guid: 0b9ff645f8547f845b921d24ed1027eb, type: 3}
    - {fileID: 21300000, guid: 906e38ef9b224f14da3ba49f56806e7f, type: 3}
    - {fileID: 21300000, guid: 8519e4df121cada498f520a8a22c13aa, type: 3}
    - {fileID: 21300000, guid: 571de340c3b2b1a41ad089d33f0571a7, type: 3}
    - {fileID: 21300000, guid: cce8a07027114eb48894c68b4c121b08, type: 3}
    - {fileID: 21300000, guid: a23cf5c6d9f40da4f91c2998c61784ba, type: 3}
    - {fileID: 21300000, guid: 47418f4b8ef038443b685f8e5e1729b0, type: 3}
    - {fileID: 21300000, guid: a04f28c73907f1042a4d4bdb670eb898, type: 3}
    - {fileID: 21300000, guid: 7dd735e0c7ae2b543b391bed62b94fca, type: 3}
    - {fileID: 21300000, guid: 75fdaccf4517f9a4fa0391f9b1624380, type: 3}
    - {fileID: 21300000, guid: 733c638672b77e449ae1d6a1f9ab245c, type: 3}
    - {fileID: 21300000, guid: aaafb76aa6cd7b049a8badb2ed55dd5b, type: 3}
    - {fileID: 21300000, guid: e8d0e1219bd522a428f740fa5a648e93, type: 3}
    - {fileID: 21300000, guid: 0a2864c31c98b8347965fa3dc566dd5a, type: 3}
    - {fileID: 21300000, guid: fa03628c46f226e49a26cd87c33eca67, type: 3}
    - {fileID: 21300000, guid: 22c39576c03ae0e478a198b9eb17ef25, type: 3}
    - {fileID: 21300000, guid: cb46039583ec5da45b171c68b76cb2c1, type: 3}
    - {fileID: 21300000, guid: 4d02f8b7d0a99d54982a31929d7b4c20, type: 3}
  m_AnimationClipSettings:
    serializedVersion: 2
    m_AdditiveReferencePoseClip: {fileID: 0}
    m_AdditiveReferencePoseTime: 0
    m_StartTime: 0
    m_StopTime: 0.8
    m_OrientationOffsetY: 0
    m_Level: 0
    m_CycleOffset: 0
    m_HasAdditiveReferencePose: 0
    m_LoopTime: 1
    m_LoopBlend: 0
    m_LoopBlendOrientation: 0
    m_LoopBlendPositionY: 0
    m_LoopBlendPositionXZ: 0
    m_KeepOriginalOrientation: 0
    m_KeepOriginalPositionY: 1
    m_KeepOriginalPositionXZ: 0
    m_HeightFromFeet: 0
    m_Mirror: 0
  m_EditorCurves: []
  m_EulerEditorCurves: []
  m_HasGenericRootTransform: 0
  m_HasMotionFloatCurves: 0
  m_Events: []
