%YAML 1.1
%TAG !u! tag:unity3d.com,2011:
--- !u!74 &7400000
AnimationClip:
  m_ObjectHideFlags: 0
  m_CorrespondingSourceObject: {fileID: 0}
  m_PrefabInstance: {fileID: 0}
  m_PrefabAsset: {fileID: 0}
  m_Name: BG_BlurAnim
  serializedVersion: 6
  m_Legacy: 0
  m_Compressed: 0
  m_UseHighQualityCurve: 1
  m_RotationCurves: []
  m_CompressedRotationCurves: []
  m_EulerCurves: []
  m_PositionCurves: []
  m_ScaleCurves: []
  m_FloatCurves: []
  m_PPtrCurves:
  - curve:
    - time: 0
      value: {fileID: 21300000, guid: ffbac9d3a4acfb741a3024fdb5dffe20, type: 3}
    - time: 0.016666668
      value: {fileID: 21300000, guid: 01104aa633c1eab4f80fc81b10df1b88, type: 3}
    - time: 0.033333335
      value: {fileID: 21300000, guid: c34e9d1ae77665241979e87da1ea3974, type: 3}
    - time: 0.05
      value: {fileID: 21300000, guid: 23116fdbf8bbd6744b12052e4d61ac43, type: 3}
    - time: 0.06666667
      value: {fileID: 21300000, guid: 9e7e5b95ef9832d4086c34bd06db9ada, type: 3}
    - time: 0.083333336
      value: {fileID: 21300000, guid: b02dd4fd23ac62741a3b194daccc2eb8, type: 3}
    - time: 0.1
      value: {fileID: 21300000, guid: aebdd6869ed2a454d8e560dc66c42dca, type: 3}
    - time: 0.11666667
      value: {fileID: 21300000, guid: bc01f1f6cb19dba47a9c842b139ded38, type: 3}
    - time: 0.13333334
      value: {fileID: 21300000, guid: 1ca50cc7b12201047b8a30ff5d5fc290, type: 3}
    - time: 0.15
      value: {fileID: 21300000, guid: c4fba71c459c1ed4bb8742dba2202d50, type: 3}
    - time: 0.16666667
      value: {fileID: 21300000, guid: 99102ec52481d5843b415582db377ccd, type: 3}
    - time: 0.18333334
      value: {fileID: 21300000, guid: c8fc04ae2b32a9b4da7dc2f72bf349f8, type: 3}
    - time: 0.2
      value: {fileID: 21300000, guid: 89616db19a9a77d4bac069747613774e, type: 3}
    - time: 0.21666667
      value: {fileID: 21300000, guid: 1ec5300eaba4cd54ca0366b38e27729d, type: 3}
    - time: 0.23333333
      value: {fileID: 21300000, guid: 947a60746cdfeef489295465bee60d1d, type: 3}
    - time: 0.25
      value: {fileID: 21300000, guid: 9ee539676ee73e74196a6c98e82ead89, type: 3}
    - time: 0.26666668
      value: {fileID: 21300000, guid: f4b7c82d9e820364682603b352ffca3a, type: 3}
    - time: 0.28333333
      value: {fileID: 21300000, guid: cb2c2c4c12d9e0542ac580843a6d1d28, type: 3}
    - time: 0.3
      value: {fileID: 21300000, guid: a6121d841935a064b9c52490c9786a52, type: 3}
    - time: 0.31666666
      value: {fileID: 21300000, guid: 4b48651b5de3e1d438ddfffc48a51bd4, type: 3}
    - time: 0.33333334
      value: {fileID: 21300000, guid: 99e197f6d85a111438fc18a19ff4b40a, type: 3}
    - time: 0.35
      value: {fileID: 21300000, guid: 1dc4af0f34de8d646bdb0b70ec66742d, type: 3}
    - time: 0.36666667
      value: {fileID: 21300000, guid: 8426f85a2e3835c4e8ded159f147eee3, type: 3}
    - time: 0.38333333
      value: {fileID: 21300000, guid: 167fff4490aa20c4b862935d27245ec3, type: 3}
    - time: 0.4
      value: {fileID: 21300000, guid: 539ccf7e85cabe549bd9b34c6073000e, type: 3}
    - time: 0.41666666
      value: {fileID: 21300000, guid: 79746817873aa3b4d8950e0aafca5803, type: 3}
    - time: 0.43333334
      value: {fileID: 21300000, guid: 2325b16568b76a341ae5f365632896d8, type: 3}
    - time: 0.45
      value: {fileID: 21300000, guid: d1b9943e16dd0814682430bd2e1d0d26, type: 3}
    - time: 0.46666667
      value: {fileID: 21300000, guid: 0578051c8056734489975ecec75709b2, type: 3}
    - time: 0.48333332
      value: {fileID: 21300000, guid: 17c9c5c2b43a5e64aba0190da32e52f5, type: 3}
    - time: 0.5
      value: {fileID: 21300000, guid: 907de26a3dc119549b10f76bba2f30f5, type: 3}
    - time: 0.51666665
      value: {fileID: 21300000, guid: 89da0a18db6fbd8489c9330a98c0e17b, type: 3}
    - time: 0.53333336
      value: {fileID: 21300000, guid: 429b5ba5fa559374c8af9f962e1da53c, type: 3}
    - time: 0.55
      value: {fileID: 21300000, guid: fdcd45cddd9897e40a114d7014c29568, type: 3}
    - time: 0.56666666
      value: {fileID: 21300000, guid: dc95e03b6b513d4419a3915b07f11307, type: 3}
    - time: 0.5833333
      value: {fileID: 21300000, guid: 46fa8517f43781d40afb5197609f6269, type: 3}
    - time: 0.6
      value: {fileID: 21300000, guid: 36efd4c9d793ae24dabe185af57e3265, type: 3}
    - time: 0.6166667
      value: {fileID: 21300000, guid: 3d35fc1866f01d641886fc0b5193b54d, type: 3}
    - time: 0.6333333
      value: {fileID: 21300000, guid: d3dfa6b7f9cf20441983de4e24232cc1, type: 3}
    - time: 0.65
      value: {fileID: 21300000, guid: df1a2928f6e905f4486b07eb51e0a7c2, type: 3}
    - time: 0.6666667
      value: {fileID: 21300000, guid: ed4a60b1f6cbb0a4283b4b4af5fe00c5, type: 3}
    - time: 0.68333334
      value: {fileID: 21300000, guid: 2f4ae1ee5446dfc45a382c6bae8f7c06, type: 3}
    - time: 0.7
      value: {fileID: 21300000, guid: 5df86dc53769bbf49b343fc8d3b5c662, type: 3}
    - time: 0.71666664
      value: {fileID: 21300000, guid: 962cc71ecc113f541bdadb69f63bb7e3, type: 3}
    - time: 0.73333335
      value: {fileID: 21300000, guid: ee6bc5bbf824c0647be0e196b047b6f0, type: 3}
    - time: 0.75
      value: {fileID: 21300000, guid: f8f21f5bec5299c4681c6816e84fef53, type: 3}
    - time: 0.76666665
      value: {fileID: 21300000, guid: dd887556ec2438d4ab444a4227dcf648, type: 3}
    - time: 0.78333336
      value: {fileID: 21300000, guid: 4bb3f4ec3eb3c404bb54f9b9cabbf2d1, type: 3}
    - time: 0.8
      value: {fileID: 21300000, guid: b273c799404549d418e0ae3884726f52, type: 3}
    - time: 0.81666666
      value: {fileID: 21300000, guid: 3e0f9833f21c4a8489aaf53c20104b95, type: 3}
    - time: 0.8333333
      value: {fileID: 21300000, guid: bda2d462b6b4f1f418904e2e287713db, type: 3}
    - time: 0.85
      value: {fileID: 21300000, guid: 359149cde6a3b5442ab1c16f9bd43a9e, type: 3}
    - time: 0.8666667
      value: {fileID: 21300000, guid: bda30c3b49165b346b1134021105a3a5, type: 3}
    - time: 0.8833333
      value: {fileID: 21300000, guid: 3a4ed2bc52d1dd9419edc66c9b7c38b9, type: 3}
    - time: 0.9
      value: {fileID: 21300000, guid: 3dd08b6d3bacfbd4c93f7155a956d91e, type: 3}
    - time: 0.9166667
      value: {fileID: 21300000, guid: d038046fcad1a8b4a9963de964704a99, type: 3}
    - time: 0.93333334
      value: {fileID: 21300000, guid: ee582b6a2d6452848a2296d7e3de5b89, type: 3}
    - time: 0.95
      value: {fileID: 21300000, guid: e08cbf96227866b49a3343004a34edff, type: 3}
    - time: 0.96666664
      value: {fileID: 21300000, guid: d222a3aff2e68384981cccbcb7e644d4, type: 3}
    - time: 0.98333335
      value: {fileID: 21300000, guid: 25f858a7ec2a2ec48b59b378a0f72cff, type: 3}
    - time: 1
      value: {fileID: 21300000, guid: 8e90cd8cf7b34ad4f8091764c0a4bd2b, type: 3}
    - time: 1.0166667
      value: {fileID: 21300000, guid: 28e90f7efc88028439bcc9b9437c636b, type: 3}
    - time: 1.0333333
      value: {fileID: 21300000, guid: e08b89e5a583a3145a53cb0f1172ba8a, type: 3}
    - time: 1.05
      value: {fileID: 21300000, guid: a3653bce8a765864fbf762bdc7127d2c, type: 3}
    - time: 1.0666667
      value: {fileID: 21300000, guid: ed5617e3450b075448e64774263f452e, type: 3}
    - time: 1.0833334
      value: {fileID: 21300000, guid: 768783046d251f24cb50846fa5a093aa, type: 3}
    - time: 1.1
      value: {fileID: 21300000, guid: bee4a17e3443aec4a8eeb0a156b7004e, type: 3}
    - time: 1.1166667
      value: {fileID: 21300000, guid: 3260846ead2d1e149b1f33f04a768445, type: 3}
    - time: 1.1333333
      value: {fileID: 21300000, guid: ec37b70c70424d341a324fe8feaf9a71, type: 3}
    - time: 1.15
      value: {fileID: 21300000, guid: 34776070fb75ad749885439a22890202, type: 3}
    - time: 1.1666666
      value: {fileID: 21300000, guid: b8f2cba3e930157408a78346251cb5ee, type: 3}
    - time: 1.1833333
      value: {fileID: 21300000, guid: 7136df6b6f77e0642884e90679f3ac47, type: 3}
    - time: 1.2
      value: {fileID: 21300000, guid: 789064b6203de8049aeadf078fa9450a, type: 3}
    - time: 1.2166667
      value: {fileID: 21300000, guid: 52ea62db18db8a549be89eb3a8bb14a4, type: 3}
    - time: 1.2333333
      value: {fileID: 21300000, guid: 47d7f5d4c893f5f4aa097d2dfb4c6f5a, type: 3}
    - time: 1.25
      value: {fileID: 21300000, guid: d906a6c26571c7344ad8e759b6cd94da, type: 3}
    - time: 1.2666667
      value: {fileID: 21300000, guid: eb046b91c52285544a422b5ab225c321, type: 3}
    - time: 1.2833333
      value: {fileID: 21300000, guid: 6d97e39dee5ca4849b127bb5a31b5028, type: 3}
    - time: 1.3
      value: {fileID: 21300000, guid: ab6d9f432e5bc5148b5ed0b041168186, type: 3}
    - time: 1.3166667
      value: {fileID: 21300000, guid: 9c6210451ce9d3b41952fd671ce19a3b, type: 3}
    - time: 1.3333334
      value: {fileID: 21300000, guid: d6a042855cb3fd64086fd128779aadf9, type: 3}
    - time: 1.35
      value: {fileID: 21300000, guid: ac8ef190be398e745a2aa3529951ac45, type: 3}
    - time: 1.3666667
      value: {fileID: 21300000, guid: 7b0febb142c716144989a1ff106f2ddd, type: 3}
    - time: 1.3833333
      value: {fileID: 21300000, guid: 242549a2a3a0acd459582be6d74d92a8, type: 3}
    - time: 1.4
      value: {fileID: 21300000, guid: 38007d40a374c324bae3e2e073d86d0b, type: 3}
    - time: 1.4166666
      value: {fileID: 21300000, guid: 2bb5362fa04a41547a8d94f5cd0208cf, type: 3}
    - time: 1.4333333
      value: {fileID: 21300000, guid: 75f3ab40d80d0b446aa20af1e399e2ff, type: 3}
    - time: 1.45
      value: {fileID: 21300000, guid: 91bff2b8b6a6bee40bf7a020af839883, type: 3}
    - time: 1.4666667
      value: {fileID: 21300000, guid: d1422ce87712320458e221b7078c1dd9, type: 3}
    - time: 1.4833333
      value: {fileID: 21300000, guid: ececc38c13514bf4cab036adabc5ba95, type: 3}
    - time: 1.5
      value: {fileID: 21300000, guid: 42fa3cc31735eb1498b39d0c09d03361, type: 3}
    - time: 1.5166667
      value: {fileID: 21300000, guid: b572536b027e50b4f9ba7ba710a20df1, type: 3}
    - time: 1.5333333
      value: {fileID: 21300000, guid: 91815e954e7a8644fa7b59d1a27b9595, type: 3}
    - time: 1.55
      value: {fileID: 21300000, guid: 8504cc2a66d5c404cb0bdd3e8058321d, type: 3}
    - time: 1.5666667
      value: {fileID: 21300000, guid: 6da50df7ef98a3240a5f51bd1e41de40, type: 3}
    - time: 1.5833334
      value: {fileID: 21300000, guid: b239fe87492ead34ba2abe6be30445f9, type: 3}
    - time: 1.6
      value: {fileID: 21300000, guid: 5cfbf3e691d669f438f6884a5688fe10, type: 3}
    - time: 1.6166667
      value: {fileID: 21300000, guid: 9996af7697f751145a5d85d5dc3532e2, type: 3}
    - time: 1.6333333
      value: {fileID: 21300000, guid: 4dc5da5300bda494591610e48ffcb2a5, type: 3}
    - time: 1.65
      value: {fileID: 21300000, guid: a75fd9b954843d04ea469e172045e759, type: 3}
    - time: 1.6666666
      value: {fileID: 21300000, guid: 33cc0d1a81bd21945a0d7f29c3d287d5, type: 3}
    - time: 1.6833333
      value: {fileID: 21300000, guid: b76bf7ad695c4774ba4e0faef6db8f14, type: 3}
    - time: 1.7
      value: {fileID: 21300000, guid: 2afbbe74f4796834c9a5d66d709bc2c2, type: 3}
    - time: 1.7166667
      value: {fileID: 21300000, guid: 8257462f04441df41b65a09f15a89178, type: 3}
    - time: 1.7333333
      value: {fileID: 21300000, guid: e0cfe5f2aa1fcaf48b5c40cf102ae91a, type: 3}
    - time: 1.75
      value: {fileID: 21300000, guid: b642bb52f59b1d64d8511cd2fde30228, type: 3}
    - time: 1.7666667
      value: {fileID: 21300000, guid: 7451c53ea0ec3444b883b07a68a1f573, type: 3}
    - time: 1.7833333
      value: {fileID: 21300000, guid: 5c8b8dadcf5171b4aa9ac1e50f585f40, type: 3}
    - time: 1.8
      value: {fileID: 21300000, guid: 1ff0f46f7d011e746bb23996b215ca89, type: 3}
    - time: 1.8166667
      value: {fileID: 21300000, guid: 395e9282578497248bb709f5918a0d67, type: 3}
    - time: 1.8333334
      value: {fileID: 21300000, guid: aee9b4ae64b35644c9aafcbd868f4e54, type: 3}
    - time: 1.85
      value: {fileID: 21300000, guid: 029a9b54514f8ff49a551affd1537d3e, type: 3}
    - time: 1.8666667
      value: {fileID: 21300000, guid: 2c2c05fd72ec6ea459502b439e0524a4, type: 3}
    - time: 1.8833333
      value: {fileID: 21300000, guid: 12103bbbb4e9bc141b902bc01daca6a1, type: 3}
    - time: 1.9
      value: {fileID: 21300000, guid: 627321be63e0ba440aaf1648208657ad, type: 3}
    - time: 1.9166666
      value: {fileID: 21300000, guid: 16396d4b062348640b52bed504fe3c8b, type: 3}
    - time: 1.9333333
      value: {fileID: 21300000, guid: a4e436acfcca8a4498712acabf699bfd, type: 3}
    - time: 1.95
      value: {fileID: 21300000, guid: 824d66a4f2aca824ab4872de953d84df, type: 3}
    - time: 1.9666667
      value: {fileID: 21300000, guid: 6dc2fa7f94c80ef4683a4a8da02348a2, type: 3}
    - time: 1.9833333
      value: {fileID: 21300000, guid: 83abb70f2f0ec4f4bb202ef1df98be1a, type: 3}
    - time: 2
      value: {fileID: 21300000, guid: 26a5a29ca5887bf45bddc9ef33be6217, type: 3}
    - time: 2.0166667
      value: {fileID: 21300000, guid: 4ff8b1a4bdd042a4ebfff50143e3ce32, type: 3}
    - time: 2.0333333
      value: {fileID: 21300000, guid: 9f1f53d8a9a3ba24a95072cb2ded56d5, type: 3}
    - time: 2.05
      value: {fileID: 21300000, guid: e5318012b577d4745a5b31042892afa6, type: 3}
    - time: 2.0666666
      value: {fileID: 21300000, guid: 72eba150fbd27c845becb3fb5f438f4d, type: 3}
    - time: 2.0833333
      value: {fileID: 21300000, guid: 4613df54b7bce0a478d5a632dc1fb3db, type: 3}
    - time: 2.1
      value: {fileID: 21300000, guid: 5d0ce6a456b071846897ae6568001919, type: 3}
    - time: 2.1166666
      value: {fileID: 21300000, guid: adc9b4464f035fd499b51f5b3f1355ef, type: 3}
    - time: 2.1333334
      value: {fileID: 21300000, guid: c616921dbbaffba48b785a29adae1dac, type: 3}
    - time: 2.15
      value: {fileID: 21300000, guid: f93f2b8983873b442ba1506ba7fea2d4, type: 3}
    - time: 2.1666667
      value: {fileID: 21300000, guid: 49a555cfada5a4848a1b833f371b9dc3, type: 3}
    - time: 2.1833334
      value: {fileID: 21300000, guid: 6ea76107f3a82fa489c262271b6b1f3c, type: 3}
    - time: 2.2
      value: {fileID: 21300000, guid: aa95fcf0d68d958459bc309f0e531901, type: 3}
    - time: 2.2166667
      value: {fileID: 21300000, guid: 97866891057a3af44b5378ac4994ec7b, type: 3}
    - time: 2.2333333
      value: {fileID: 21300000, guid: 20357236c56383c44a0b70cce2a4c4dd, type: 3}
    - time: 2.25
      value: {fileID: 21300000, guid: a1e8c72fff08e1c4ea94901906ca85fb, type: 3}
    - time: 2.2666667
      value: {fileID: 21300000, guid: 52b0bc024c691fe4eabcd9c6709094f5, type: 3}
    - time: 2.2833333
      value: {fileID: 21300000, guid: 036231607b1cc334a8e4870eb51b7e16, type: 3}
    - time: 2.3
      value: {fileID: 21300000, guid: b0b0c843eaf28c542a7c230401846a2f, type: 3}
    - time: 2.3166666
      value: {fileID: 21300000, guid: d6b59b4f1bba5f74ba821049fc5e820f, type: 3}
    - time: 2.3333333
      value: {fileID: 21300000, guid: 6b4fb749098a7f24e9f58ebcb31d2afd, type: 3}
    - time: 2.35
      value: {fileID: 21300000, guid: 9e0def30b58f69d489735ff4f4fdb896, type: 3}
    - time: 2.3666666
      value: {fileID: 21300000, guid: 036c56d4e2b4de2418b4617e6902dd17, type: 3}
    - time: 2.3833334
      value: {fileID: 21300000, guid: dd01588ac2e61d34b93f9caf000fcb79, type: 3}
    - time: 2.4
      value: {fileID: 21300000, guid: e63868b1bd21d4d4eaa81577f1cf0cf5, type: 3}
    - time: 2.4166667
      value: {fileID: 21300000, guid: 5825b5f2cc9afdf488ad493364fcc54f, type: 3}
    - time: 2.4333334
      value: {fileID: 21300000, guid: 7ae1e648557825543a12c964e4cab2f1, type: 3}
    - time: 2.45
      value: {fileID: 21300000, guid: db8c1c957f0b57146b4218a8d4d6aac3, type: 3}
    - time: 2.4666667
      value: {fileID: 21300000, guid: cd30cacb020647944897833465b92dba, type: 3}
    - time: 2.4833333
      value: {fileID: 21300000, guid: 64a36d87d3727b049b052a4abd41c648, type: 3}
    - time: 2.5
      value: {fileID: 21300000, guid: bd5a1c9301bccb942b9f4f95196bcf09, type: 3}
    - time: 2.5166667
      value: {fileID: 21300000, guid: 807e2ff7d228a344eae13a6d33a7a4c5, type: 3}
    - time: 2.5333333
      value: {fileID: 21300000, guid: 48430d215041cc64fab0a720b5548129, type: 3}
    - time: 2.55
      value: {fileID: 21300000, guid: ce6a7bdba0a1edc4698b16fd5d5b5b5c, type: 3}
    - time: 2.5666666
      value: {fileID: 21300000, guid: b1aafe2e033fa3c40ae7777b57650778, type: 3}
    - time: 2.5833333
      value: {fileID: 21300000, guid: 8fb4ea9dffcaaec49bd959295ff0eeaf, type: 3}
    attribute: m_Sprite
    path: 
    classID: 114
    script: {fileID: 11500000, guid: fe87c0e1cc204ed48ad3b37840f39efc, type: 3}
  m_SampleRate: 60
  m_WrapMode: 0
  m_Bounds:
    m_Center: {x: 0, y: 0, z: 0}
    m_Extent: {x: 0, y: 0, z: 0}
  m_ClipBindingConstant:
    genericBindings:
    - serializedVersion: 2
      path: 0
      attribute: 2015549526
      script: {fileID: 11500000, guid: fe87c0e1cc204ed48ad3b37840f39efc, type: 3}
      typeID: 114
      customType: 0
      isPPtrCurve: 1
    pptrCurveMapping:
    - {fileID: 21300000, guid: ffbac9d3a4acfb741a3024fdb5dffe20, type: 3}
    - {fileID: 21300000, guid: 01104aa633c1eab4f80fc81b10df1b88, type: 3}
    - {fileID: 21300000, guid: c34e9d1ae77665241979e87da1ea3974, type: 3}
    - {fileID: 21300000, guid: 23116fdbf8bbd6744b12052e4d61ac43, type: 3}
    - {fileID: 21300000, guid: 9e7e5b95ef9832d4086c34bd06db9ada, type: 3}
    - {fileID: 21300000, guid: b02dd4fd23ac62741a3b194daccc2eb8, type: 3}
    - {fileID: 21300000, guid: aebdd6869ed2a454d8e560dc66c42dca, type: 3}
    - {fileID: 21300000, guid: bc01f1f6cb19dba47a9c842b139ded38, type: 3}
    - {fileID: 21300000, guid: 1ca50cc7b12201047b8a30ff5d5fc290, type: 3}
    - {fileID: 21300000, guid: c4fba71c459c1ed4bb8742dba2202d50, type: 3}
    - {fileID: 21300000, guid: 99102ec52481d5843b415582db377ccd, type: 3}
    - {fileID: 21300000, guid: c8fc04ae2b32a9b4da7dc2f72bf349f8, type: 3}
    - {fileID: 21300000, guid: 89616db19a9a77d4bac069747613774e, type: 3}
    - {fileID: 21300000, guid: 1ec5300eaba4cd54ca0366b38e27729d, type: 3}
    - {fileID: 21300000, guid: 947a60746cdfeef489295465bee60d1d, type: 3}
    - {fileID: 21300000, guid: 9ee539676ee73e74196a6c98e82ead89, type: 3}
    - {fileID: 21300000, guid: f4b7c82d9e820364682603b352ffca3a, type: 3}
    - {fileID: 21300000, guid: cb2c2c4c12d9e0542ac580843a6d1d28, type: 3}
    - {fileID: 21300000, guid: a6121d841935a064b9c52490c9786a52, type: 3}
    - {fileID: 21300000, guid: 4b48651b5de3e1d438ddfffc48a51bd4, type: 3}
    - {fileID: 21300000, guid: 99e197f6d85a111438fc18a19ff4b40a, type: 3}
    - {fileID: 21300000, guid: 1dc4af0f34de8d646bdb0b70ec66742d, type: 3}
    - {fileID: 21300000, guid: 8426f85a2e3835c4e8ded159f147eee3, type: 3}
    - {fileID: 21300000, guid: 167fff4490aa20c4b862935d27245ec3, type: 3}
    - {fileID: 21300000, guid: 539ccf7e85cabe549bd9b34c6073000e, type: 3}
    - {fileID: 21300000, guid: 79746817873aa3b4d8950e0aafca5803, type: 3}
    - {fileID: 21300000, guid: 2325b16568b76a341ae5f365632896d8, type: 3}
    - {fileID: 21300000, guid: d1b9943e16dd0814682430bd2e1d0d26, type: 3}
    - {fileID: 21300000, guid: 0578051c8056734489975ecec75709b2, type: 3}
    - {fileID: 21300000, guid: 17c9c5c2b43a5e64aba0190da32e52f5, type: 3}
    - {fileID: 21300000, guid: 907de26a3dc119549b10f76bba2f30f5, type: 3}
    - {fileID: 21300000, guid: 89da0a18db6fbd8489c9330a98c0e17b, type: 3}
    - {fileID: 21300000, guid: 429b5ba5fa559374c8af9f962e1da53c, type: 3}
    - {fileID: 21300000, guid: fdcd45cddd9897e40a114d7014c29568, type: 3}
    - {fileID: 21300000, guid: dc95e03b6b513d4419a3915b07f11307, type: 3}
    - {fileID: 21300000, guid: 46fa8517f43781d40afb5197609f6269, type: 3}
    - {fileID: 21300000, guid: 36efd4c9d793ae24dabe185af57e3265, type: 3}
    - {fileID: 21300000, guid: 3d35fc1866f01d641886fc0b5193b54d, type: 3}
    - {fileID: 21300000, guid: d3dfa6b7f9cf20441983de4e24232cc1, type: 3}
    - {fileID: 21300000, guid: df1a2928f6e905f4486b07eb51e0a7c2, type: 3}
    - {fileID: 21300000, guid: ed4a60b1f6cbb0a4283b4b4af5fe00c5, type: 3}
    - {fileID: 21300000, guid: 2f4ae1ee5446dfc45a382c6bae8f7c06, type: 3}
    - {fileID: 21300000, guid: 5df86dc53769bbf49b343fc8d3b5c662, type: 3}
    - {fileID: 21300000, guid: 962cc71ecc113f541bdadb69f63bb7e3, type: 3}
    - {fileID: 21300000, guid: ee6bc5bbf824c0647be0e196b047b6f0, type: 3}
    - {fileID: 21300000, guid: f8f21f5bec5299c4681c6816e84fef53, type: 3}
    - {fileID: 21300000, guid: dd887556ec2438d4ab444a4227dcf648, type: 3}
    - {fileID: 21300000, guid: 4bb3f4ec3eb3c404bb54f9b9cabbf2d1, type: 3}
    - {fileID: 21300000, guid: b273c799404549d418e0ae3884726f52, type: 3}
    - {fileID: 21300000, guid: 3e0f9833f21c4a8489aaf53c20104b95, type: 3}
    - {fileID: 21300000, guid: bda2d462b6b4f1f418904e2e287713db, type: 3}
    - {fileID: 21300000, guid: 359149cde6a3b5442ab1c16f9bd43a9e, type: 3}
    - {fileID: 21300000, guid: bda30c3b49165b346b1134021105a3a5, type: 3}
    - {fileID: 21300000, guid: 3a4ed2bc52d1dd9419edc66c9b7c38b9, type: 3}
    - {fileID: 21300000, guid: 3dd08b6d3bacfbd4c93f7155a956d91e, type: 3}
    - {fileID: 21300000, guid: d038046fcad1a8b4a9963de964704a99, type: 3}
    - {fileID: 21300000, guid: ee582b6a2d6452848a2296d7e3de5b89, type: 3}
    - {fileID: 21300000, guid: e08cbf96227866b49a3343004a34edff, type: 3}
    - {fileID: 21300000, guid: d222a3aff2e68384981cccbcb7e644d4, type: 3}
    - {fileID: 21300000, guid: 25f858a7ec2a2ec48b59b378a0f72cff, type: 3}
    - {fileID: 21300000, guid: 8e90cd8cf7b34ad4f8091764c0a4bd2b, type: 3}
    - {fileID: 21300000, guid: 28e90f7efc88028439bcc9b9437c636b, type: 3}
    - {fileID: 21300000, guid: e08b89e5a583a3145a53cb0f1172ba8a, type: 3}
    - {fileID: 21300000, guid: a3653bce8a765864fbf762bdc7127d2c, type: 3}
    - {fileID: 21300000, guid: ed5617e3450b075448e64774263f452e, type: 3}
    - {fileID: 21300000, guid: 768783046d251f24cb50846fa5a093aa, type: 3}
    - {fileID: 21300000, guid: bee4a17e3443aec4a8eeb0a156b7004e, type: 3}
    - {fileID: 21300000, guid: 3260846ead2d1e149b1f33f04a768445, type: 3}
    - {fileID: 21300000, guid: ec37b70c70424d341a324fe8feaf9a71, type: 3}
    - {fileID: 21300000, guid: 34776070fb75ad749885439a22890202, type: 3}
    - {fileID: 21300000, guid: b8f2cba3e930157408a78346251cb5ee, type: 3}
    - {fileID: 21300000, guid: 7136df6b6f77e0642884e90679f3ac47, type: 3}
    - {fileID: 21300000, guid: 789064b6203de8049aeadf078fa9450a, type: 3}
    - {fileID: 21300000, guid: 52ea62db18db8a549be89eb3a8bb14a4, type: 3}
    - {fileID: 21300000, guid: 47d7f5d4c893f5f4aa097d2dfb4c6f5a, type: 3}
    - {fileID: 21300000, guid: d906a6c26571c7344ad8e759b6cd94da, type: 3}
    - {fileID: 21300000, guid: eb046b91c52285544a422b5ab225c321, type: 3}
    - {fileID: 21300000, guid: 6d97e39dee5ca4849b127bb5a31b5028, type: 3}
    - {fileID: 21300000, guid: ab6d9f432e5bc5148b5ed0b041168186, type: 3}
    - {fileID: 21300000, guid: 9c6210451ce9d3b41952fd671ce19a3b, type: 3}
    - {fileID: 21300000, guid: d6a042855cb3fd64086fd128779aadf9, type: 3}
    - {fileID: 21300000, guid: ac8ef190be398e745a2aa3529951ac45, type: 3}
    - {fileID: 21300000, guid: 7b0febb142c716144989a1ff106f2ddd, type: 3}
    - {fileID: 21300000, guid: 242549a2a3a0acd459582be6d74d92a8, type: 3}
    - {fileID: 21300000, guid: 38007d40a374c324bae3e2e073d86d0b, type: 3}
    - {fileID: 21300000, guid: 2bb5362fa04a41547a8d94f5cd0208cf, type: 3}
    - {fileID: 21300000, guid: 75f3ab40d80d0b446aa20af1e399e2ff, type: 3}
    - {fileID: 21300000, guid: 91bff2b8b6a6bee40bf7a020af839883, type: 3}
    - {fileID: 21300000, guid: d1422ce87712320458e221b7078c1dd9, type: 3}
    - {fileID: 21300000, guid: ececc38c13514bf4cab036adabc5ba95, type: 3}
    - {fileID: 21300000, guid: 42fa3cc31735eb1498b39d0c09d03361, type: 3}
    - {fileID: 21300000, guid: b572536b027e50b4f9ba7ba710a20df1, type: 3}
    - {fileID: 21300000, guid: 91815e954e7a8644fa7b59d1a27b9595, type: 3}
    - {fileID: 21300000, guid: 8504cc2a66d5c404cb0bdd3e8058321d, type: 3}
    - {fileID: 21300000, guid: 6da50df7ef98a3240a5f51bd1e41de40, type: 3}
    - {fileID: 21300000, guid: b239fe87492ead34ba2abe6be30445f9, type: 3}
    - {fileID: 21300000, guid: 5cfbf3e691d669f438f6884a5688fe10, type: 3}
    - {fileID: 21300000, guid: 9996af7697f751145a5d85d5dc3532e2, type: 3}
    - {fileID: 21300000, guid: 4dc5da5300bda494591610e48ffcb2a5, type: 3}
    - {fileID: 21300000, guid: a75fd9b954843d04ea469e172045e759, type: 3}
    - {fileID: 21300000, guid: 33cc0d1a81bd21945a0d7f29c3d287d5, type: 3}
    - {fileID: 21300000, guid: b76bf7ad695c4774ba4e0faef6db8f14, type: 3}
    - {fileID: 21300000, guid: 2afbbe74f4796834c9a5d66d709bc2c2, type: 3}
    - {fileID: 21300000, guid: 8257462f04441df41b65a09f15a89178, type: 3}
    - {fileID: 21300000, guid: e0cfe5f2aa1fcaf48b5c40cf102ae91a, type: 3}
    - {fileID: 21300000, guid: b642bb52f59b1d64d8511cd2fde30228, type: 3}
    - {fileID: 21300000, guid: 7451c53ea0ec3444b883b07a68a1f573, type: 3}
    - {fileID: 21300000, guid: 5c8b8dadcf5171b4aa9ac1e50f585f40, type: 3}
    - {fileID: 21300000, guid: 1ff0f46f7d011e746bb23996b215ca89, type: 3}
    - {fileID: 21300000, guid: 395e9282578497248bb709f5918a0d67, type: 3}
    - {fileID: 21300000, guid: aee9b4ae64b35644c9aafcbd868f4e54, type: 3}
    - {fileID: 21300000, guid: 029a9b54514f8ff49a551affd1537d3e, type: 3}
    - {fileID: 21300000, guid: 2c2c05fd72ec6ea459502b439e0524a4, type: 3}
    - {fileID: 21300000, guid: 12103bbbb4e9bc141b902bc01daca6a1, type: 3}
    - {fileID: 21300000, guid: 627321be63e0ba440aaf1648208657ad, type: 3}
    - {fileID: 21300000, guid: 16396d4b062348640b52bed504fe3c8b, type: 3}
    - {fileID: 21300000, guid: a4e436acfcca8a4498712acabf699bfd, type: 3}
    - {fileID: 21300000, guid: 824d66a4f2aca824ab4872de953d84df, type: 3}
    - {fileID: 21300000, guid: 6dc2fa7f94c80ef4683a4a8da02348a2, type: 3}
    - {fileID: 21300000, guid: 83abb70f2f0ec4f4bb202ef1df98be1a, type: 3}
    - {fileID: 21300000, guid: 26a5a29ca5887bf45bddc9ef33be6217, type: 3}
    - {fileID: 21300000, guid: 4ff8b1a4bdd042a4ebfff50143e3ce32, type: 3}
    - {fileID: 21300000, guid: 9f1f53d8a9a3ba24a95072cb2ded56d5, type: 3}
    - {fileID: 21300000, guid: e5318012b577d4745a5b31042892afa6, type: 3}
    - {fileID: 21300000, guid: 72eba150fbd27c845becb3fb5f438f4d, type: 3}
    - {fileID: 21300000, guid: 4613df54b7bce0a478d5a632dc1fb3db, type: 3}
    - {fileID: 21300000, guid: 5d0ce6a456b071846897ae6568001919, type: 3}
    - {fileID: 21300000, guid: adc9b4464f035fd499b51f5b3f1355ef, type: 3}
    - {fileID: 21300000, guid: c616921dbbaffba48b785a29adae1dac, type: 3}
    - {fileID: 21300000, guid: f93f2b8983873b442ba1506ba7fea2d4, type: 3}
    - {fileID: 21300000, guid: 49a555cfada5a4848a1b833f371b9dc3, type: 3}
    - {fileID: 21300000, guid: 6ea76107f3a82fa489c262271b6b1f3c, type: 3}
    - {fileID: 21300000, guid: aa95fcf0d68d958459bc309f0e531901, type: 3}
    - {fileID: 21300000, guid: 97866891057a3af44b5378ac4994ec7b, type: 3}
    - {fileID: 21300000, guid: 20357236c56383c44a0b70cce2a4c4dd, type: 3}
    - {fileID: 21300000, guid: a1e8c72fff08e1c4ea94901906ca85fb, type: 3}
    - {fileID: 21300000, guid: 52b0bc024c691fe4eabcd9c6709094f5, type: 3}
    - {fileID: 21300000, guid: 036231607b1cc334a8e4870eb51b7e16, type: 3}
    - {fileID: 21300000, guid: b0b0c843eaf28c542a7c230401846a2f, type: 3}
    - {fileID: 21300000, guid: d6b59b4f1bba5f74ba821049fc5e820f, type: 3}
    - {fileID: 21300000, guid: 6b4fb749098a7f24e9f58ebcb31d2afd, type: 3}
    - {fileID: 21300000, guid: 9e0def30b58f69d489735ff4f4fdb896, type: 3}
    - {fileID: 21300000, guid: 036c56d4e2b4de2418b4617e6902dd17, type: 3}
    - {fileID: 21300000, guid: dd01588ac2e61d34b93f9caf000fcb79, type: 3}
    - {fileID: 21300000, guid: e63868b1bd21d4d4eaa81577f1cf0cf5, type: 3}
    - {fileID: 21300000, guid: 5825b5f2cc9afdf488ad493364fcc54f, type: 3}
    - {fileID: 21300000, guid: 7ae1e648557825543a12c964e4cab2f1, type: 3}
    - {fileID: 21300000, guid: db8c1c957f0b57146b4218a8d4d6aac3, type: 3}
    - {fileID: 21300000, guid: cd30cacb020647944897833465b92dba, type: 3}
    - {fileID: 21300000, guid: 64a36d87d3727b049b052a4abd41c648, type: 3}
    - {fileID: 21300000, guid: bd5a1c9301bccb942b9f4f95196bcf09, type: 3}
    - {fileID: 21300000, guid: 807e2ff7d228a344eae13a6d33a7a4c5, type: 3}
    - {fileID: 21300000, guid: 48430d215041cc64fab0a720b5548129, type: 3}
    - {fileID: 21300000, guid: ce6a7bdba0a1edc4698b16fd5d5b5b5c, type: 3}
    - {fileID: 21300000, guid: b1aafe2e033fa3c40ae7777b57650778, type: 3}
    - {fileID: 21300000, guid: 8fb4ea9dffcaaec49bd959295ff0eeaf, type: 3}
  m_AnimationClipSettings:
    serializedVersion: 2
    m_AdditiveReferencePoseClip: {fileID: 0}
    m_AdditiveReferencePoseTime: 0
    m_StartTime: 0
    m_StopTime: 2.6
    m_OrientationOffsetY: 0
    m_Level: 0
    m_CycleOffset: 0
    m_HasAdditiveReferencePose: 0
    m_LoopTime: 1
    m_LoopBlend: 0
    m_LoopBlendOrientation: 0
    m_LoopBlendPositionY: 0
    m_LoopBlendPositionXZ: 0
    m_KeepOriginalOrientation: 0
    m_KeepOriginalPositionY: 1
    m_KeepOriginalPositionXZ: 0
    m_HeightFromFeet: 0
    m_Mirror: 0
  m_EditorCurves: []
  m_EulerEditorCurves: []
  m_HasGenericRootTransform: 0
  m_HasMotionFloatCurves: 0
  m_Events: []
